<svg width="33" height="33" viewBox="0 0 33 33" fill="none" xmlns="http://www.w3.org/2000/svg">
<g clip-path="url(#clip0_749_781)">
<path d="M32.8008 16.4986C32.8008 25.3351 25.6373 32.4986 16.8008 32.4986C7.96428 32.4986 0.800781 25.3351 0.800781 16.4986C0.800781 16.5024 16.8008 0.500454 16.8008 0.498642C25.6373 0.498642 32.8008 7.66214 32.8008 16.4986Z" fill="#0052B4"/>
<path d="M16.7996 0.498642C16.7987 0.498642 16.7977 0.498677 16.7969 0.498677L16.7996 0.498642Z" fill="#F0F0F0"/>
<path d="M16.7578 16.4985H16.8006C16.8006 16.484 16.8006 16.4701 16.8006 16.4557C16.7864 16.47 16.7721 16.4842 16.7578 16.4985Z" fill="#F0F0F0"/>
<path d="M16.8008 8.84651C16.8008 6.03119 16.8008 4.18638 16.8008 0.498695H16.7981C7.96278 0.500133 0.800781 7.66294 0.800781 16.4986H9.14859V11.7979L13.8493 16.4986H16.758C16.7723 16.4844 16.7866 16.4701 16.8008 16.4558C16.8008 15.3779 16.8008 14.4161 16.8008 13.5473L12.1 8.84651H16.8008Z" fill="#F0F0F0"/>
<path d="M8.89447 2.58558C6.39203 4.01052 4.31166 6.09089 2.88672 8.59333V16.4986H7.06066V6.75958V6.75952H16.7998C16.7998 5.44308 16.7998 4.18895 16.7998 2.58558H8.89447Z" fill="#D80027"/>
<path d="M16.7967 14.5311L11.1121 8.84658H9.14453C9.14453 8.84652 9.14453 8.84658 9.14453 8.84658L16.7966 16.4986H16.7967C16.7967 16.4986 16.7967 15.1421 16.7967 14.5311Z" fill="#D80027"/>
<path d="M10.4505 19.2812L11.3286 21.1174L13.3116 20.6591L12.4236 22.4904L14.0182 23.755L12.0328 24.2025L12.0383 26.2377L10.4505 24.9644L8.86275 26.2377L8.86831 24.2025L6.88281 23.755L8.4775 22.4904L7.58938 20.6591L9.57244 21.1174L10.4505 19.2812Z" fill="#F0F0F0"/>
<path d="M24.7565 22.7595L25.1955 23.6776L26.187 23.4484L25.743 24.3641L26.5403 24.9964L25.5476 25.2201L25.5503 26.2377L24.7565 25.6011L23.9626 26.2377L23.9653 25.2201L22.9727 24.9964L23.77 24.3641L23.326 23.4484L24.3174 23.6776L24.7565 22.7595Z" fill="#F0F0F0"/>
<path d="M20.6706 13.0204L21.1096 13.9385L22.1011 13.7093L21.6571 14.625L22.4544 15.2573L21.4617 15.481L21.4644 16.4987L20.6706 15.862L19.8767 16.4987L19.8794 15.481L18.8867 15.2573L19.684 14.625L19.24 13.7093L20.2315 13.9385L20.6706 13.0204Z" fill="#F0F0F0"/>
<path d="M24.7565 7.45512L25.1955 8.37324L26.187 8.14405L25.743 9.05974L26.5403 9.69199L25.5476 9.9158L25.5503 10.9334L24.7565 10.2967L23.9626 10.9334L23.9653 9.9158L22.9727 9.69199L23.7699 9.05974L23.326 8.14405L24.3174 8.37324L24.7565 7.45512Z" fill="#F0F0F0"/>
<path d="M28.3229 11.6292L28.7619 12.5474L29.7534 12.3181L29.3094 13.2338L30.1067 13.8661L29.114 14.0899L29.1167 15.1075L28.3229 14.4709L27.5291 15.1075L27.5318 14.0899L26.5391 13.8661L27.3364 13.2338L26.8924 12.3181L27.8838 12.5474L28.3229 11.6292Z" fill="#F0F0F0"/>
<path d="M25.7715 16.4986L26.1168 17.5615H27.2345L26.3303 18.2185L26.6757 19.2813L25.7715 18.6244L24.8674 19.2813L25.2127 18.2185L24.3086 17.5615H25.4262L25.7715 16.4986Z" fill="#F0F0F0"/>
</g>
<defs>
<clipPath id="clip0_749_781">
<rect width="32" height="32" fill="white" transform="translate(0.800781 0.498642)"/>
</clipPath>
</defs>
</svg>
